CDC Data Analysis Exercise – LiangLai Data Analysis Portfolio
…
Exploratory Analysis

# number of counties by state
cdc %>%
  count(state, sort = TRUE) %>%
  mutate(pct = n / sum(n))

# A tibble: 49 × 3
   state     n    pct
   <chr> <int>  <dbl>
 1 TX      253 0.0856
 2 GA      159 0.0538
 3 VA      133 0.0450
 4 MO      115 0.0389
 5 KS      105 0.0355
 6 IL      102 0.0345
 7 NC      100 0.0338
 8 IA       99 0.0335
 9 TN       95 0.0321
10 NE       93 0.0315
# ℹ 39 more rows
…
